{
    "2008": {
        "player": "SE Marsh",
        "times_of_player_of_match": 5
    },
    "2009": {
        "player": "YK Pathan",
        "times_of_player_of_match": 3
    },
    "2010": {
        "player": "SR Tendulkar",
        "times_of_player_of_match": 4
    },
    "2011": {
        "player": "CH Gayle",
        "times_of_player_of_match": 6
    },
    "2012": {
        "player": "CH Gayle",
        "times_of_player_of_match": 5
    },
    "2013": {
        "player": "MEK Hussey",
        "times_of_player_of_match": 5
    },
    "2014": {
        "player": "GJ Maxwell",
        "times_of_player_of_match": 4
    },
    "2015": {
        "player": "DA Warner",
        "times_of_player_of_match": 4
    },
    "2016": {
        "player": "V Kohli",
        "times_of_player_of_match": 5
    },
    "2017": {
        "player": "BA Stokes",
        "times_of_player_of_match": 3
    }
}